Email,GrouponCode,PaintNiteCode,RedemptionDate
mistuhbobas@yahoo.com,HEA112045418651,zfzmg6iw1x3    ,12/9/2015 1:46:20 AM
mistuhbobas@yahoo.com,HEA112045418651,je0bwgg2lxx    ,12/9/2015 1:46:20 AM
cintra@drinks.com,ddtest12673049 ,opqlj3rykpo    ,12/9/2015 10:16:29 AM
cintra@drinks.com,ddtest12673049 ,v0z1bftjtk0    ,12/9/2015 10:16:29 AM
cintra@drinks.com,ddtest12673049 ,rufy1g2r7px    ,12/9/2015 10:16:29 AM
cintra@drinks.com,ddtest12673049 ,dr32a92vkdp    ,12/9/2015 10:16:29 AM
deeprtt@yahoo.com,HEA112047532578,ro0j8ha7rnj    ,12/9/2015 3:21:51 PM
deeprtt@yahoo.com,HEA112047532578,yd3ltkbvee4    ,12/9/2015 3:21:51 PM
kaylaevas@gmail.com,HEA112047231696,8kgwe881hbw    ,12/9/2015 7:49:40 PM
kaylaevas@gmail.com,HEA112047231696,9wo7un2ejd8    ,12/9/2015 7:49:40 PM
