Email,GrouponCode,PaintNiteCode,RedemptionDate
golcapford@yahoo.com,HEA112045825107,qqvdfdmuwxc    ,12/14/2015 12:28:10 PM
golcapford@yahoo.com,HEA112045825107,vry1pxi37zz    ,12/14/2015 12:28:10 PM
kjean4262@gmail.com,HEA112047231718,mlke1t91j23    ,12/14/2015 8:03:08 PM
kjean4262@gmail.com,HEA112047231718,ca3gilzkokq    ,12/14/2015 8:03:08 PM
